Rule rec.annotate.rules.AttachmentRule
Rule rec.annotate.rules.ContinuedWhenRule
Rule rec.annotate.rules.ExternalMotionUtteranceRule
Rule rec.annotate.rules.GroundedRule
Rule rec.annotate.rules.LeverAttachmentForceRule
Rule rec.annotate.rules.LeverBalanceRule
Rule rec.annotate.rules.LeverRule
Rule rec.annotate.rules.DistanceRule
Rule rec.annotate.rules.MergeConsecutiveEventsRule
Rule rec.annotate.rules.MotionCausesMotionRule
Rule rec.annotate.rules.MotionCausesMotionConstraintRule
Rule rec.annotate.rules.MotionGestureRule
Rule rec.annotate.rules.MotionUtteranceRule
#Rule rec.annotate.rules.PropelsDecompRule
Rule rec.annotate.rules.PropelsUtteranceRule
Rule rec.annotate.rules.RotationRule
Rule rec.annotate.rules.RotationUtteranceRule
Rule rec.annotate.rules.SpringReleaseUtteranceRule
Rule rec.annotate.rules.WhenParseRule
Rule rec.annotate.rules.WhenUtteranceRule
