# recognizers for common voice commands:

Grammar rec.core.speech.Common
#rec.core.speech.QuitUtteranceRecognizer

# Grammar rec.core.speech.Frustration
# rec.core.speech.FrustrationRecognizer

rec.core.reasoners.CommandReasoner