rec.meche.ScrewRecognizer
rec.meche.NutRecognizer
rec.meche.MotorRecognizer
rec.meche.SolenoidRecognizer
rec.meche.PistonRecognizer
rec.meche.ForceRecognizer
rec.meche.GearRecognizer
rec.meche.FrameRecognizer
rec.meche.SpringRecognizer
rec.meche.CompressionSpringRecognizer
rec.meche.TensionSpringRecognizer
rec.meche.WasherRecognizer
rec.meche.BallRecognizer
rec.meche.SocketRecognizer
rec.meche.CamRecognizer
rec.meche.ChainRecognizer
rec.meche.BallAndSocketRecognizer
