
# some things from Manoj's work used in sim package
rec.meche.SpringRecognizer
rec.meche.ForceRecognizer
rec.meche.LooseForceRecognizer
rec.simulate.recognizers.SimForce2Recognizer

#rec.meche.PulleyWheelRecognizer
#rec.meche.GearRecognizer
#rec.meche.BallRecognizer

