EditMode Selection

rec.core.recognizers.UnselectTargetRecognizer
#rec.core.recognizers.DeleteTargetRecognizer
rec.core.recognizers.DeleteGroupRecognizer

#rec.core.recognizers.MoveTargetRecognizer
# CopyTargetRecognizer

rec.core.reasoners.SelectionTargetReasoner

rec.core.recognizers.FastMoveTargetRecognizer
