/* XPM */
static char *javacc-32[] = {
/* width height num_colors chars_per_pixel */
"    32    32       16            1",
/* colors */
". c #ffffff",
"# c #fff6e3",
"a c #f9e4b9",
"b c #ffd98c",
"c c #ded47f",
"d c #aad4a1",
"e c #94db54",
"f c #96a65d",
"g c #38d903",
"h c #27cb00",
"i c #44aa19",
"j c #15a700",
"k c #515b36",
"l c #0c6c00",
"m c #000000",
"n c #ffffff",
/* pixels */
"nnnnmmmmmlimmmmmmmmmmmmmmmmmmmmm",
"nnndicbffchccecbaam............m",
"nnnnjibefbghceibaam......mm....m",
"nnnnlhcficchifiibam......mm....m",
"nnnnmgibjgccgjjjcam......mm....m",
"nnnnmijffjhcfjjlcam......mm....m",
"ddnnmfhieljhjjhhicm......mm....m",
"neeijhhghhjghjjjhim...mm.mm....m",
"nnddmijjggghhghljgl...mmmmm....m",
"dnnnmkljghhhhhhjjhgd...........m",
"jendljhggggghhhgjlhhmmmmmmmmmmmm",
"ihhhhhgghhghhggghjjhikaa######.m",
"nfjhhhhhhgggggghggjjgka#######.m",
"nnljljjjhgggggggghjjika#######.m",
"kkljhhhgggggggjjggglkka#######.m",
"klhggggghggggjmmlghjhkf#######.m",
"khghhhhhhgggglmmkgghjgk#######.m",
"kghhhghhhhgggjmkkhgghgk#######.m",
"kgghhgghhhhggggiihggggkf######.m",
"kggggggghjhhhhgggggggghf######.m",
"khggggeekkiijjkjgghhghgifda###.m",
"khgggeecfffkkkkkljjhgghiiifd##.m",
"kgghgecckcbbbbbcfillggghggggd#.m",
"khggeecffbbbbbbbackjjgghhhhgf#.m",
"kjhgecckcbbbbbbbaaakjmggghhhd#.m",
"khggecckcbbbbbbbaaacljljlghhf#.m",
"khhgecfkbbbbbbbbaaacihlmmjgge#.m",
"khggecfkbbbbbbbbaaaakglmmlgge#.m",
"kggeccfkbbbbbbbbaaaakjglljhhd#.m",
"kjgeccfkbbbbbbbbaaaadljlfiia##.m",
"khhgccfkbbbbbbbbaaaaadff######.m",
"kkkkkkkkmmmmmmmmmmmmmmmmmmmmmmmm"
};
